{"feed":{"author":{"name":{"label":"iTunes Store"}, "uri":{"label":"http://www.apple.com/itunes/"}}, "entry":[
  {"im:name":{"label":"Captain Tsubasa: Dream Team"}, "im:image":[
    {"label":"https://is4-ssl.mzstatic.com/image/thumb/Purple125/v4/c3/af/83/c3af8381-e7cd-2f9d-382e-e3ffeb1ccb81/AppIcon-1x_U007emarketing-85-220-5.png/53x53bb-85.png", "attributes":{"height":"53"}},
    {"label":"https://is3-ssl.mzstatic.com/image/thumb/Purple125/v4/c3/af/83/c3af8381-e7cd-2f9d-382e-e3ffeb1ccb81/AppIcon-1x_U007emarketing-85-220-5.png/75x75bb-85.png", "attributes":{"height":"75"}},
    {"label":"https://is5-ssl.mzstatic.com/image/thumb/Purple125/v4/c3/af/83/c3af8381-e7cd-2f9d-382e-e3ffeb1ccb81/AppIcon-1x_U007emarketing-85-220-5.png/100x100bb-85.png", "attributes":{"height":"100"}}], "summary":{"label":"『足球小將翼』的新手機遊戲正式上線！\n以自己喜歡的球員打造出獨一無二的夢幻隊伍，與全世界的玩家們好好地切磋熱戰一番吧！ \n\n■魄力十足！大空翼獨有的必殺技\n大空翼的「抽球射門」以及日向的「猛虎射門」等在漫畫原著中令人印象深刻的必殺技，將以魄力十足的3D畫面重現！編入了過場動畫及語音的經典原著劇情也是不容錯過的焦點！\n\n■痛快人心的對戰\n以最適合智慧型手機的操作環境，帶來最暢快人心的遊玩手感！請務必在這個可以輕鬆自在地享受對戰的環境下好好暢遊一番，並以成為世界第一為目標！\n\n■透過經典賽模式重溫漫畫原著\n藉由參加經典賽程，體驗原著的故事劇情！絕對會讓人想起那些懷念的時刻的………!\n\n■編輯隊伍\n不管是球員、陣型、隊服……全都可以自己一手打造！編輯出具自我風格、獨一無二的夢幻隊伍吧！\n\n■球員養成\n透過訓練來強化球員能力！同名球員更可互相傳授必殺技！以精煉後的球員搭配最佳戰術，向全世界的好手展現自己的最強足球吧！\n\n＝＝＝＝＝＝＝＝＝＝＝＝＝＝＝＝＝＝＝＝\n\n【最新資訊盡在官方網站！】\n■官方網站\nhttps://www.tsubasa-dreamteam.com/tc/\n\n＝＝＝＝＝＝＝＝＝＝＝＝＝＝＝＝＝＝＝＝\n\n©Yoichi Takahashi/SHUEISHA ©Yoichi Takahashi/SHUEISHA/TV TOKYO/ENOKIFILM"}, "im:price":{"label":"取得", "attributes":{"amount":"0.00000", "currency":"HKD"}}, "im:contentType":{"attributes":{"term":"Application", "label":"應用程式"}}, "rights":{"label":"©Yoichi Takahashi/SHUEISHA ©Yoichi Takahashi/SHUEISHA/TV TOKYO/ENOKIFILM © KLabGames"}, "title":{"label":"Captain Tsubasa: Dream Team - KLab Inc."}, "link":{"attributes":{"rel":"alternate", "type":"text/html", "href":"https://itunes.apple.com/hk/app/captain-tsubasa-dream-team/id1293738123?mt=8&uo=2"}}, "id":{"label":"https://itunes.apple.com/hk/app/captain-tsubasa-dream-team/id1293738123?mt=8&uo=2", "attributes":{"im:id":"1293738123", "im:bundleId":"com.klab.captain283.global"}}, "im:artist":{"label":"KLab Inc.", "attributes":{"href":"https://itunes.apple.com/hk/developer/klab-inc/id302647750?mt=8&uo=2"}}, "category":{"attributes":{"im:id":"6014", "term":"Games", "scheme":"https://itunes.apple.com/hk/genre/ios-%E9%81%8A%E6%88%B2/id6014?mt=8&uo=2", "label":"遊戲"}}, "im:releaseDate":{"label":"2017-12-04T19:31:33-07:00", "attributes":{"label":"2017年12月04日"}}},
  {"im:name":{"label":"Garena 傳說對決"}, "im:image":[
    {"label":"https://is4-ssl.mzstatic.com/image/thumb/Purple115/v4/f3/d2/4f/f3d24f74-9e61-0917-9a08-74faed09b167/AppIcon-1x_U007emarketing-85-220-9.png/53x53bb-85.png", "attributes":{"height":"53"}},
    {"label":"https://is1-ssl.mzstatic.com/image/thumb/Purple115/v4/f3/d2/4f/f3d24f74-9e61-0917-9a08-74faed09b167/AppIcon-1x_U007emarketing-85-220-9.png/75x75bb-85.png", "attributes":{"height":"75"}},
    {"label":"https://is4-ssl.mzstatic.com/image/thumb/Purple115/v4/f3/d2/4f/f3d24f74-9e61-0917-9a08-74faed09b167/AppIcon-1x_U007emarketing-85-220-9.png/100x100bb-85.png", "attributes":{"height":"100"}}], "summary":{"label":"《Garena 傳說對決》是一款獻給所有遊戲愛好者的 5v5 團戰 MOBA 手遊，能讓 10 位玩家同場競技。簡單好上手的操作方式、細膩的畫風與高品質的遊戲畫面、多樣化的英雄與遊戲模式，無論你是操作華麗的神手玩家，或是想與三五好友輕鬆對戰的休閒玩家，都不能錯過正在襲捲的傳說風潮。\n\n\n-- 遊戲特色 --\n\n【三路推塔、十人激戰】：經典的三路推塔 MOBA 玩法，以上中下三路搭配 10 位玩家的英雄選擇與策略思考，激盪出無限種對戰可能！\n【公平對戰、隨時開團】：遊戲中不販售任何可能影響英雄強弱與戰局勝敗的物品，提供絕對公平的對戰環境，無論新手或老手，想當王者只能憑實力！\n【獨特英雄、精美畫風】：機智小狐狸、賣萌羊咩咩、可愛小胖子、超殺高校女…數十位別具特色的獨特英雄，國際級一流畫師所繪製的精美畫風，選出你的本命角色大殺四方！\n【多種模式、豐富玩法】：1v1、3V3、5V5 - 無論你喜歡單挑或團戰，多樣化的對戰模式都能讓你欲罷不能！\n【節奏快速、想玩就玩】：平均一場 10 分鐘的對戰，零碎時間拿起手機隨時解放壓力！\n \n傳說對決，逗陣來玩！\n\n-- 聯繫我們 --\n \nGarena 傳說對決官網：http://moba.garena.tw/landing\nFacebook 粉絲團：Garena 傳說對決"}, "im:price":{"label":"取得", "attributes":{"amount":"0.00000", "currency":"HKD"}}, "im:contentType":{"attributes":{"term":"Application", "label":"應用程式"}}, "rights":{"label":"© Garena Online Private Limited"}, "title":{"label":"Garena 傳說對決 - Garena Online Private Ltd"}, "link":{"attributes":{"rel":"alternate", "type":"text/html", "href":"https://itunes.apple.com/hk/app/garena-%E5%82%B3%E8%AA%AA%E5%B0%8D%E6%B1%BA/id1089079153?mt=8&uo=2"}}, "id":{"label":"https://itunes.apple.com/hk/app/garena-%E5%82%B3%E8%AA%AA%E5%B0%8D%E6%B1%BA/id1089079153?mt=8&uo=2", "attributes":{"im:id":"1089079153", "im:bundleId":"com.garena.game.kgtw"}}, "im:artist":{"label":"Garena Online Private Ltd", "attributes":{"href":"https://itunes.apple.com/hk/developer/garena-online-private-ltd/id513828660?mt=8&uo=2"}}, "category":{"attributes":{"im:id":"6014", "term":"Games", "scheme":"https://itunes.apple.com/hk/genre/ios-%E9%81%8A%E6%88%B2/id6014?mt=8&uo=2", "label":"遊戲"}}, "im:releaseDate":{"label":"2016-10-12T22:05:35-07:00", "attributes":{"label":"2016年10月12日"}}},
  {"im:name":{"label":"寶可夢探險尋寶"}, "im:image":[
    {"label":"https://is3-ssl.mzstatic.com/image/thumb/Purple125/v4/3f/6a/4b/3f6a4b88-efad-6fc4-27c9-9802f144f187/AppIcon-1x_U007emarketing-85-220-0-9.png/53x53bb-85.png", "attributes":{"height":"53"}},
    {"label":"https://is5-ssl.mzstatic.com/image/thumb/Purple125/v4/3f/6a/4b/3f6a4b88-efad-6fc4-27c9-9802f144f187/AppIcon-1x_U007emarketing-85-220-0-9.png/75x75bb-85.png", "attributes":{"height":"75"}},
    {"label":"https://is1-ssl.mzstatic.com/image/thumb/Purple125/v4/3f/6a/4b/3f6a4b88-efad-6fc4-27c9-9802f144f187/AppIcon-1x_U007emarketing-85-220-0-9.png/100x100bb-85.png", "attributes":{"height":"100"}}], "summary":{"label":"方塊造型的寶可夢大展身手！歡樂的探險RPG『寶可夢探險尋寶』！\n\n■您熟悉的寶可夢們變成方塊造型了！？出發到全是方塊形狀的小島「方可樂島」探險去吧！\n冒險的舞台是方塊形狀世界裡的小島「方可樂島」。\n身為主角的您要找出沉睡在方可樂島上的超棒的寶物。\n與方塊造型的寶可夢們並肩探險，一起把寶物找出來吧！\n您熟悉的『精靈寶可夢 紅/綠』的寶可夢們將會登場。\n\n■點觸螢幕戰鬥！用簡單的操作就能享受歡樂的戰鬥樂趣！\n想在危險四伏的方可樂島探險，必須借助寶可夢們的力量。\n當野生的寶可夢出現的時候，與您的夥伴寶可夢們一擁而上，把敵方寶可夢們通通打倒，向前進吧！\n\n■讓寶可夢們成為夥伴，組出專屬於自己的探險小隊吧！\n只要使用探險途中獲得的物品，便可以讓寶可夢成為自己的夥伴，或是讓寶可夢的力量增強。\n讓夥伴的數量增加，組出自己專屬的探險小隊，往方可樂島深處前進吧。\n\n■用可愛的「裝飾物品」裝飾自己的冒險基地吧！\n基地是您冒險時的根據地，您可以用「裝飾物品」盡情地將基地裝飾成您喜歡的模樣。\n此外，「裝飾物品」還能增加您在小島上探險的效率。\n\n※注意事項※\n·使用條款\n使用前請務必仔細閱讀使用條款。\n\n·資料的儲存\n本遊戲的遊戲資料只會儲存在您目前所使用的裝置中。只有在使用應用程式中的「備份」功能時，遊戲資料才會被儲存至伺服器上。因此，我們建議您經常進行備份。\n\n·支援的裝置\n（iOS）OS9以上版本\n※恕不保證iPhone5等不支援iOS11的裝置之正常遊戲。\n※由於各個玩家之使用情況以及環境皆有不同，恕無法保證在所有裝置上都能正常遊戲。\n\n·網路環境\n遊戲中有部分操作（例：在商店購買道具等）操作需使用網路連線功能。若玩遊戲時的網路環境不穩定，可能導致遊戲資料毀損或遺失遊戲進度。\n請務必在網路環境良好的地方進行連線操作。\n\n若遊戲中因網路暫時性的不穩定而出現錯誤，請稍候片刻後再試一次。\n請注意，我們將無法為您處理起因自連線錯誤的問題。\n\n·購買道具時的注意事項\n請務必在購買付費道具前，確認您可在所持有的智慧型手機上正常使用免費遊戲內容後，再進行購買。\n請注意，遊戲可能會因相容性等問題而無法在特定裝置上正常運作。\n\n·諮詢\n請透過《寶可夢探險尋寶》的諮詢表單進行諮詢。\n若您以其他方式進行諮詢，我們有可能無法立即確認您的問題。"}, "im:price":{"label":"取得", "attributes":{"amount":"0.00000", "currency":"HKD"}}, "im:contentType":{"attributes":{"term":"Application", "label":"應用程式"}}, "rights":{"label":"© 2018 Pokémon. © 1995-2018 Nintendo/Creatures Inc./GAME FREAK inc."}, "title":{"label":"寶可夢探險尋寶 - The Pokemon Company"}, "link":{"attributes":{"rel":"alternate", "type":"text/html", "href":"https://itunes.apple.com/hk/app/%E5%AF%B6%E5%8F%AF%E5%A4%A2%E6%8E%A2%E9%9A%AA%E5%B0%8B%E5%AF%B6/id1345187641?mt=8&uo=2"}}, "id":{"label":"https://itunes.apple.com/hk/app/%E5%AF%B6%E5%8F%AF%E5%A4%A2%E6%8E%A2%E9%9A%AA%E5%B0%8B%E5%AF%B6/id1345187641?mt=8&uo=2", "attributes":{"im:id":"1345187641", "im:bundleId":"jp.pokemon.pokemonquest"}}, "im:artist":{"label":"The Pokemon Company", "attributes":{"href":"https://itunes.apple.com/hk/developer/the-pokemon-company/id446737235?mt=8&uo=2"}}, "category":{"attributes":{"im:id":"6014", "term":"Games", "scheme":"https://itunes.apple.com/hk/genre/ios-%E9%81%8A%E6%88%B2/id6014?mt=8&uo=2", "label":"遊戲"}}, "im:releaseDate":{"label":"2018-06-28T00:00:00-07:00", "attributes":{"label":"2018年06月28日"}}},
  {"im:name":{"label":"RO仙境傳說：守護永恆的愛"}, "im:image":[
    {"label":"https://is1-ssl.mzstatic.com/image/thumb/Purple125/v4/2c/48/4b/2c484bb5-2d75-986d-d37d-f89659e81362/AppIcon-1x_U007emarketing-0-85-220-0-5.png/53x53bb-85.png", "attributes":{"height":"53"}},
    {"label":"https://is3-ssl.mzstatic.com/image/thumb/Purple125/v4/2c/48/4b/2c484bb5-2d75-986d-d37d-f89659e81362/AppIcon-1x_U007emarketing-0-85-220-0-5.png/75x75bb-85.png", "attributes":{"height":"75"}},
    {"label":"https://is2-ssl.mzstatic.com/image/thumb/Purple125/v4/2c/48/4b/2c484bb5-2d75-986d-d37d-f89659e81362/AppIcon-1x_U007emarketing-0-85-220-0-5.png/100x100bb-85.png", "attributes":{"height":"100"}}], "summary":{"label":"《RO仙境傳說：守護永恆的愛》承諾忠於經典，秉持最高誠意守護你我的回憶，遊戲中不但強化獨有的社交溫度，更以豐富的冒險系統打造全新的RO體驗，讓我們一起創造新回憶，再次守護永恆的愛！\n\n====遊戲特色====\n\n【傳承經典，全新畫面完美進化】\n全3D重現端遊經典畫面，更精緻的米德加爾特王國，普隆德拉、吉芬、斐揚震撼歸來，有愛的人物、Q彈的怪物、耳熟能詳的頭飾、坐騎全部複刻，更有全新天氣系統上線，帶給你真實冒險體驗！\n\n【拍照系統，遊戲點滴隨時記錄】\n獨特的拍照系統，在遊戲中的任何地方都能拍下最難忘的畫面。跟好友一起推王、一起刷寶、一起在南門聽音樂…點點滴滴隨時紀錄。\n\n【傭兵貓系統，打寶練功最佳幫手】\n刷怪、練功、解任務   最佳良伴\n各種職業的傭兵貓，可以搭配不同的職業，讓你練功打寶效率倍增！\n\n【時裝系統，打造自我獨特風格】\n六種不同部位、多樣化的時裝，打造出屬於自我的獨特風格！\n\n【公會社群，有你有我的大家庭】\n組隊刷王、掛機練功、聊天哈拉、一起冒險~\n有你有我的公會據點，是最熱鬧溫暖的大家庭~^^~\n\n【競技系統，單打群鬥共顯本事】\n單人大亂鬥模式、五對五PK競技、團隊爭奪戰競賽\n想要大顯身手??快來競技場上一較高下吧!!\n\n【有愛設計，歡樂遊戲充滿樂趣】\n遊戲中充斥著許多“無意義”的有愛設計：讓好友變醜的搗蛋道具、讓自己變身的變形卷軸、能幫你暗送秋波的示好物品、以及暖暖的牽手功能、萌萌的聊天表情，這些不會讓你變強，不能幫你升級，但卻能帶給你更美好的遊戲回憶。\n\n【戀愛專屬，屬於兩人的小世界】\n跟喜歡的人一起搭乘波利熱氣球、一起坐幸福摩天輪、一起解公會任務、一起牽手奔跑、偷偷對喜歡的人惡作劇、屬於兩人的表情動作，還有只屬於你我兩人的絕對領域。\n\n\n==官方資訊==\nFB粉絲團：搜尋『@RO.ForeverLove』\n線上回報：https://www.wegames.com.tw/service/ask\n\n※本遊戲內容涉及暴力(攻擊等血腥畫面)、遊戲角色穿著凸顯性特徵服飾、引誘使用菸酒之畫面或情節。\n※本遊戲有商城加值區，請依個人興趣、能力進行體驗,避免過度消費。\n※長時間進行遊戲，容易影響正常作息，宜適度休息及運動。"}, "im:price":{"label":"取得", "attributes":{"amount":"0.00000", "currency":"HKD"}}, "im:contentType":{"attributes":{"term":"Application", "label":"應用程式"}}, "rights":{"label":"Copyright© GRAVITY CO., Ltd. ALL Rights Reserved."}, "title":{"label":"RO仙境傳說：守護永恆的愛 - GRAVITY Co., Ltd."}, "link":{"attributes":{"rel":"alternate", "type":"text/html", "href":"https://itunes.apple.com/hk/app/ro%E4%BB%99%E5%A2%83%E5%82%B3%E8%AA%AA-%E5%AE%88%E8%AD%B7%E6%B0%B8%E6%81%86%E7%9A%84%E6%84%9B/id1253796614?mt=8&uo=2"}}, "id":{"label":"https://itunes.apple.com/hk/app/ro%E4%BB%99%E5%A2%83%E5%82%B3%E8%AA%AA-%E5%AE%88%E8%AD%B7%E6%B0%B8%E6%81%86%E7%9A%84%E6%84%9B/id1253796614?mt=8&uo=2", "attributes":{"im:id":"1253796614", "im:bundleId":"com.gravity.ro.ios"}}, "im:artist":{"label":"GRAVITY Co., Ltd.", "attributes":{"href":"https://itunes.apple.com/hk/developer/gravity-co-ltd/id399169590?mt=8&uo=2"}}, "category":{"attributes":{"im:id":"6014", "term":"Games", "scheme":"https://itunes.apple.com/hk/genre/ios-%E9%81%8A%E6%88%B2/id6014?mt=8&uo=2", "label":"遊戲"}}, "im:releaseDate":{"label":"2017-10-11T08:11:19-07:00", "attributes":{"label":"2017年10月11日"}}},
  {"im:name":{"label":"新三國志手機版-光榮正版授權"}, "im:image":[
    {"label":"https://is4-ssl.mzstatic.com/image/thumb/Purple125/v4/82/88/ba/8288babb-dde9-fa1e-fd2c-4deeb4a3a72c/AppIcon-1x_U007emarketing-85-220-9.png/53x53bb-85.png", "attributes":{"height":"53"}},
    {"label":"https://is3-ssl.mzstatic.com/image/thumb/Purple125/v4/82/88/ba/8288babb-dde9-fa1e-fd2c-4deeb4a3a72c/AppIcon-1x_U007emarketing-85-220-9.png/75x75bb-85.png", "attributes":{"height":"75"}},
    {"label":"https://is1-ssl.mzstatic.com/image/thumb/Purple125/v4/82/88/ba/8288babb-dde9-fa1e-fd2c-4deeb4a3a72c/AppIcon-1x_U007emarketing-85-220-9.png/100x100bb-85.png", "attributes":{"height":"100"}}], "summary":{"label":"《新三國志手機版》係《三國志11》港澳台地區唯一由日本KOEI TECMO授權開發嘅手機遊戲。原《三國志》系列作為SLG類型遊戲嘅經典代表作，《新三國志手機版》亦不忙初衷，將「策略」作為核心定位及重點開發。\n\n遊戲入面，玩家可以喺超過100萬格激大地圖上同過萬名玩家即時對戰，招募將領、發展城池、打造雄兵，成為梟雄割據一方；亦可以同其它玩家群雄逐鹿、締結聯盟、攻城掠地、拓展版圖，一統漢室中原。\n\n遊戲採用3D動態嘅策略戰鬥系統，配合兵種克制關係、武將怒氣技能、武將羈絆光環、多種軍械輔助等眾多策略元素，將戰鬥策略嘅快感提升到極致。\n\n遊戲特點：\n\n--堅正版IP 日本光榮授權--\n由日本光榮正版授權，全程由三國志系列製作人北見健參與監修。人氣之作《三國志11》榮譽改編，官方品質再續「策略」經典。\n\n--策略平天下　呢隻無得輸--\n重回策略遊戲本質，以智謀奪天下。重溫當年三國志最深回憶，從單槍匹馬走向萬人激戰，同天下群雄逐鹿三國。\n\n--創新玩法 萬人即時開戰--\n一百萬格超大世界地圖任你馳騁，數十種玩法帶你走向權力巔峰：不論建城池、招武將，定係創軍團、拓展勢力版圖，總有一款玩法啱你！\n\n--謀略至上 真人智慧角力-- \n真實嘅戰場，真實嘅盟軍同敵人，每一塊地圖背後都隱藏不為人知嘅城府同計謀。是進是退？就喺戰火中見真章。\n\n--同屏激戰 考你即時反應--\n宏大嘅三國世界觀，磅礴嘅遊戲場景，攻城戰、野戰、軍團戰，俾你體驗萬人國戰嘅震撼，腦力對決影響每一分戰局。"}, "im:price":{"label":"取得", "attributes":{"amount":"0.00000", "currency":"HKD"}}, "im:contentType":{"attributes":{"term":"Application", "label":"應用程式"}}, "rights":{"label":"© 2017 HK BBGame"}, "title":{"label":"新三國志手機版-光榮正版授權 - Hong Kong Black Beard Game Limited"}, "link":{"attributes":{"rel":"alternate", "type":"text/html", "href":"https://itunes.apple.com/hk/app/%E6%96%B0%E4%B8%89%E5%9C%8B%E5%BF%97%E6%89%8B%E6%A9%9F%E7%89%88-%E5%85%89%E6%A6%AE%E6%AD%A3%E7%89%88%E6%8E%88%E6%AC%8A/id1289157855?mt=8&uo=2"}}, "id":{"label":"https://itunes.apple.com/hk/app/%E6%96%B0%E4%B8%89%E5%9C%8B%E5%BF%97%E6%89%8B%E6%A9%9F%E7%89%88-%E5%85%89%E6%A6%AE%E6%AD%A3%E7%89%88%E6%8E%88%E6%AC%8A/id1289157855?mt=8&uo=2", "attributes":{"im:id":"1289157855", "im:bundleId":"com.bbgame.sgz2017.hk"}}, "im:artist":{"label":"Hong Kong Black Beard Game Limited", "attributes":{"href":"https://itunes.apple.com/hk/developer/hong-kong-black-beard-game-limited/id1280275610?mt=8&uo=2"}}, "category":{"attributes":{"im:id":"6014", "term":"Games", "scheme":"https://itunes.apple.com/hk/genre/ios-%E9%81%8A%E6%88%B2/id6014?mt=8&uo=2", "label":"遊戲"}}, "im:releaseDate":{"label":"2017-11-15T13:03:07-07:00", "attributes":{"label":"2017年11月15日"}}},
  {"im:name":{"label":"王國紀元(Lords Mobile)-《契約魔物》全新資料"}, "im:image":[
    {"label":"https://is1-ssl.mzstatic.com/image/thumb/Purple115/v4/db/07/1f/db071fe0-e173-3805-e8ed-32dbaa4b6d9d/AppIcon-1x_U007emarketing-0-85-220-0-5.png/53x53bb-85.png", "attributes":{"height":"53"}},
    {"label":"https://is3-ssl.mzstatic.com/image/thumb/Purple115/v4/db/07/1f/db071fe0-e173-3805-e8ed-32dbaa4b6d9d/AppIcon-1x_U007emarketing-0-85-220-0-5.png/75x75bb-85.png", "attributes":{"height":"75"}},
    {"label":"https://is1-ssl.mzstatic.com/image/thumb/Purple115/v4/db/07/1f/db071fe0-e173-3805-e8ed-32dbaa4b6d9d/AppIcon-1x_U007emarketing-0-85-220-0-5.png/100x100bb-85.png", "attributes":{"height":"100"}}], "summary":{"label":"「王國紀元」是一款多人在線、即時戰爭策略遊戲。您將扮演奇幻世界中的一名領主，建立屬於自己的王國，訓練軍隊，投身史詩級的多人戰爭，攻占敵方城池，俘虜傳奇英雄，與其他玩家組成聯盟，互相協助，擊潰那些擋住您稱霸世界的敵人！\n\n遊戲特色\n- 世界戰爭，全球玩家同場競技\n全球同步，與個各國家玩家同場競技。您的對手來自世界各地，擊敗一切敵人，帶領自己的國家成為全世界最強王者。\n\n- 極致的3D畫質\n壯闊的領土和精致的建築，以全3D化的形式呈現在一張大地圖上，將遊戲的宏觀世界一覽無遺。精細的遊戲畫面，甚至山脈地殼的裂紋都清晰可見。\n\n- 建設專屬王國\n升級各種傳奇建築，研究科技，訓練軍隊，升級英雄，建造陷阱，讓您的王國日益茁壯強盛！\n\n- 獨具特色的英雄玩法\n所有的英雄都擁有其獨特的技能和攻擊方式。在冒險副本中英雄是生懷特技的獨行俠，進入軍團戰爭就會化身統領士兵沖鋒陷陣的大將，帶給您完全不同的戰鬥體驗。\n\n- 隨機應變的戰法\n兵種分為騎兵、步兵、弓兵、投石車等，特點鮮明又存在著致命的弱點。只有情報偵察到位，策略明確，同時適時地配合英雄的軍團技能，取長補短，方可決勝千里。\n\n- 掌握即時戰況\n圍城、進攻、守城、出擊，所有這些，在此遊戲中不再是呆板的文字戰報，而是以3D方式呈現，強大的畫面表現張力，不僅能讓玩家體驗到身臨其境的熱血實況，更重要的是可以讓您了解自己戰場失利的原因，吸取教訓重整旗鼓。\n\n- 聯盟大會戰\n加入聯盟，與盟友一起指點江山、商討策略、互補協助，還可以集結軍隊和盟友一起向您們的敵人發動史詩級的百團大戰。\n\n- 契約魔物，為我所用！\n戰略手遊新玩法，魔物養成計畫全面開啟！透過艾娜希女神之力，對兇狠殘暴的魔物立下了強力的約束，擁有「契約魔物」將成就你的大帝之路！"}, "im:price":{"label":"取得", "attributes":{"amount":"0.00000", "currency":"HKD"}}, "im:contentType":{"attributes":{"term":"Application", "label":"應用程式"}}, "rights":{"label":"© IGG.COM"}, "title":{"label":"王國紀元(Lords Mobile)-《契約魔物》全新資料 - IGG.COM"}, "link":{"attributes":{"rel":"alternate", "type":"text/html", "href":"https://itunes.apple.com/hk/app/%E7%8E%8B%E5%9C%8B%E7%B4%80%E5%85%83-lords-mobile-%E5%A5%91%E7%B4%84%E9%AD%94%E7%89%A9-%E5%85%A8%E6%96%B0%E8%B3%87%E6%96%99/id1071976327?mt=8&uo=2"}}, "id":{"label":"https://itunes.apple.com/hk/app/%E7%8E%8B%E5%9C%8B%E7%B4%80%E5%85%83-lords-mobile-%E5%A5%91%E7%B4%84%E9%AD%94%E7%89%A9-%E5%85%A8%E6%96%B0%E8%B3%87%E6%96%99/id1071976327?mt=8&uo=2", "attributes":{"im:id":"1071976327", "im:bundleId":"com.igg.ios.lordsmobile"}}, "im:artist":{"label":"IGG.COM", "attributes":{"href":"https://itunes.apple.com/hk/developer/igg-com/id1303288190?mt=8&uo=2"}}, "category":{"attributes":{"im:id":"6014", "term":"Games", "scheme":"https://itunes.apple.com/hk/genre/ios-%E9%81%8A%E6%88%B2/id6014?mt=8&uo=2", "label":"遊戲"}}, "im:releaseDate":{"label":"2016-03-30T19:34:16-07:00", "attributes":{"label":"2016年03月30日"}}},
  {"im:name":{"label":"天堂2：革命"}, "im:image":[
    {"label":"https://is3-ssl.mzstatic.com/image/thumb/Purple125/v4/4c/6f/d7/4c6fd787-f0ef-af6a-5d33-7cf21521500c/AppIcon-1x_U007emarketing-85-220-0-6.png/53x53bb-85.png", "attributes":{"height":"53"}},
    {"label":"https://is2-ssl.mzstatic.com/image/thumb/Purple125/v4/4c/6f/d7/4c6fd787-f0ef-af6a-5d33-7cf21521500c/AppIcon-1x_U007emarketing-85-220-0-6.png/75x75bb-85.png", "attributes":{"height":"75"}},
    {"label":"https://is5-ssl.mzstatic.com/image/thumb/Purple125/v4/4c/6f/d7/4c6fd787-f0ef-af6a-5d33-7cf21521500c/AppIcon-1x_U007emarketing-85-220-0-6.png/100x100bb-85.png", "attributes":{"height":"100"}}], "summary":{"label":"天堂2:革命更新完成\n體驗全新進化！\n\n▶ 龍之心寺院更新\n- 全新時空裂縫強勢登場!\n- 召集最強隊伍征服龍之心寺院\n獲得安伯力恩的披風\n\n▶ 3vs3名譽戰場更新\n- 體驗即時操作的戰鬥快感!\n與隊伍一同挑戰成為PVP最強者\n\n\n\n■■■■■ 遊戲特色 ■■■■■\n\n▶年度最大規模的手機遊戲 ◀\n- 全方位自由空間與即時戰鬥\n- 超大型開放式地圖\n\n▶手機最高階進化◀\n- Unreal Engine 4的視覺饗宴\n- 完美地演繹天堂2遊戲核心\n- 高品質手機遊戲巔峰鉅作\n\n▶創造血盟的世界◀\n- 一同共赴戰場、贏得勝利\n- 展現盟主的權威、血盟的意志\n- 分享彼此的勝利果實！\n\n▶大規模戰術運籌帷幄◀\n- 需要凝聚血盟的力量\n- 實現真正MMORPG手機遊戲！\n\n■ 裝置需求 ■\n- 裝置最低規格 : iPhone 5s 以上\n- 裝置建議規格 : iPhone 6  以上\n\n■應用程式權限通知■\n\n▶ 選擇性權限\n    - 麥克風 : 開啟即時語音對話。\n    - 相機 : 使用於客服回報。\n    ※ 若不同意開啟權限，遊戲還是可以進行。\n\n▶ 關閉權限方式\n    - 設定 > 選擇天堂2：革命 > 可關閉權限\n\n※本軟體依中華民國遊戲軟體分級管理辦法分類為：輔12級.\n※本遊戲內容涉及暴力、恐怖(未達血腥之畫面)、遊戲角色穿著凸顯性特徵但不涉及性暗示之服飾.\n※本遊戲為免費使用，遊戲內另提供購買虛擬遊戲幣，物品等付費服務.\n※請注意遊戲時間，避免沉迷。\n - 使用條款 : http://help.netmarble.com/policy/terms_of_service.asp?locale=en External Link\n - 隱私政策 : http://help.netmarble.com/policy/privacy_policy.asp?locale=en External Link"}, "im:price":{"label":"取得", "attributes":{"amount":"0.00000", "currency":"HKD"}}, "im:contentType":{"attributes":{"term":"Application", "label":"應用程式"}}, "rights":{"label":"© Netmarble"}, "title":{"label":"天堂2：革命 - Netmarble Games Corp."}, "link":{"attributes":{"rel":"alternate", "type":"text/html", "href":"https://itunes.apple.com/hk/app/%E5%A4%A9%E5%A0%822-%E9%9D%A9%E5%91%BD/id1200727466?mt=8&uo=2"}}, "id":{"label":"https://itunes.apple.com/hk/app/%E5%A4%A9%E5%A0%822-%E9%9D%A9%E5%91%BD/id1200727466?mt=8&uo=2", "attributes":{"im:id":"1200727466", "im:bundleId":"com.netmarble.revolutionthm"}}, "im:artist":{"label":"Netmarble Games Corp.", "attributes":{"href":"https://itunes.apple.com/hk/developer/netmarble-games-corp/id930364579?mt=8&uo=2"}}, "category":{"attributes":{"im:id":"6014", "term":"Games", "scheme":"https://itunes.apple.com/hk/genre/ios-%E9%81%8A%E6%88%B2/id6014?mt=8&uo=2", "label":"遊戲"}}, "im:releaseDate":{"label":"2017-06-13T08:11:53-07:00", "attributes":{"label":"2017年06月13日"}}},
  {"im:name":{"label":"FINAL BLADE：英雄不滅"}, "im:image":[
    {"label":"https://is2-ssl.mzstatic.com/image/thumb/Purple128/v4/5e/5f/59/5e5f597a-f815-aea3-f3a6-0b0565a990e3/AppIcon-1x_U007emarketing-85-220-8.png/53x53bb-85.png", "attributes":{"height":"53"}},
    {"label":"https://is4-ssl.mzstatic.com/image/thumb/Purple128/v4/5e/5f/59/5e5f597a-f815-aea3-f3a6-0b0565a990e3/AppIcon-1x_U007emarketing-85-220-8.png/75x75bb-85.png", "attributes":{"height":"75"}},
    {"label":"https://is4-ssl.mzstatic.com/image/thumb/Purple128/v4/5e/5f/59/5e5f597a-f815-aea3-f3a6-0b0565a990e3/AppIcon-1x_U007emarketing-85-220-8.png/100x100bb-85.png", "attributes":{"height":"100"}}], "summary":{"label":"—————故事背景—————\n\n【傳說的開始】\n故事的起源，圍繞著一把魔劍-「炙炎劍」。\n據說，過去曾有一群追求武學極致的武者，為了突破限界，將自己的魂魄煉入劍中。\n炙炎劍成了一把承載千萬英雄魂魄的魔劍，蘊含著強大力量，天下權勢者皆趨之若鶩。\n\n紅蓮皇帝為了獲得永生，誓言燒光每一寸土地，為的就是找出炙炎劍。就連歷史大國–蒼藍國，也抵擋不了他。\n\n紅蓮節節進攻，蒼藍步步後退。\n有人說，在兩國的戰役中，炙炎劍忽然顯現了，\n也有人說，炙炎劍從戰場消失了。\n沒有人知道最後究竟發生了什麼事。\n\n紅蓮皇帝持續尋覓著炙炎劍，並以高壓統治萬古大陸。\n各地英雄群起抵抗，以封印炙炎劍為目標，踏上尋找炙炎劍的旅程......\n\n—————遊戲特色—————\n\n【原創劇情Ｘ體驗全新世界觀！】\n獨創十萬字劇情，擁有超過300隻英雄角色。\n進入混沌的世界，與英雄們一同踏上封印魔劍的神聖道路！\n\n【Spine2D生動立繪Ｘ展現獨特人設！】\n極致美學展現，打造完美遊戲體驗。\n蒐集心愛的角色，深入英雄間的緣分故事，創造獨一無二的冒險羈絆～\n\n【初始職業英雄Ｘ魅力值破表！】\n・武者 - 仁浪：蒼藍國黑太子的護衛將軍，在戰場上宛如鬼神，誓死保衛蒼藍國的都城。\n・刺客 - 羽姬：外表看似柔弱，卻能獨自對抗強敵，在戰場上一擊必殺的性感刺客。\n・術士 - 武天：擁有極高的天賦才能，按捺不住好奇心的他獨自下山前往俗世遊歷。\n・射手 - 紅璽：出身於龍火山脈，擁有敏捷的身手與結實身軀，因蒼藍紅蓮戰爭爆發，挺身與紅蓮一戰！\n\n【繁中版特別角色Ｘ專屬設計好動心！】\n韓國原廠量身打造專屬角色「中央山脈-岳姬」，有容乃大的包容大地上的所有子民。快來蒐集限定角色吧！\n\n【特殊誘人SkinＸ再現角色全新面貌！】\n炎炎夏日即將開啟特殊skin活動！哪些神秘的角色會以不同姿態出現呢～追蹤FB粉絲團follow最新消息！\n\n———————————————\n\n當你身處在這樣的亂世之中，會做出什麼樣的選擇呢？\n屬於你的英雄篇章，正式展開～\n揭開戰曲之序幕，吹起正義的號角！\n韓國2D極致美學大作《FINAL BLADE：英雄不滅》\n\n更多遊戲一手資訊，請關注FB粉絲團：\nhttps://www.facebook.com/poseidon.finalblade/"}, "im:price":{"label":"取得", "attributes":{"amount":"0.00000", "currency":"HKD"}}, "im:contentType":{"attributes":{"term":"Application", "label":"應用程式"}}, "rights":{"label":"© 2018 Game Dreamer Limited. All Rights Reserved"}, "title":{"label":"FINAL BLADE：英雄不滅 - 遊戲酒吧"}, "link":{"attributes":{"rel":"alternate", "type":"text/html", "href":"https://itunes.apple.com/hk/app/final-blade-%E8%8B%B1%E9%9B%84%E4%B8%8D%E6%BB%85/id1359047607?mt=8&uo=2"}}, "id":{"label":"https://itunes.apple.com/hk/app/final-blade-%E8%8B%B1%E9%9B%84%E4%B8%8D%E6%BB%85/id1359047607?mt=8&uo=2", "attributes":{"im:id":"1359047607", "im:bundleId":"com.gamedreamer.fbtw"}}, "im:artist":{"label":"遊戲酒吧", "attributes":{"href":"https://itunes.apple.com/hk/developer/%E9%81%8A%E6%88%B2%E9%85%92%E5%90%A7/id730263381?mt=8&uo=2"}}, "category":{"attributes":{"im:id":"6014", "term":"Games", "scheme":"https://itunes.apple.com/hk/genre/ios-%E9%81%8A%E6%88%B2/id6014?mt=8&uo=2", "label":"遊戲"}}, "im:releaseDate":{"label":"2018-06-13T00:00:00-07:00", "attributes":{"label":"2018年06月13日"}}},
  {"im:name":{"label":"PES CARD COLLECTION"}, "im:image":[
    {"label":"https://is5-ssl.mzstatic.com/image/thumb/Purple115/v4/f4/0b/54/f40b5413-4c2b-e67e-9554-8656fa3c769a/AppIcon-1x_U007emarketing-85-220-5.png/53x53bb-85.png", "attributes":{"height":"53"}},
    {"label":"https://is4-ssl.mzstatic.com/image/thumb/Purple115/v4/f4/0b/54/f40b5413-4c2b-e67e-9554-8656fa3c769a/AppIcon-1x_U007emarketing-85-220-5.png/75x75bb-85.png", "attributes":{"height":"75"}},
    {"label":"https://is1-ssl.mzstatic.com/image/thumb/Purple115/v4/f4/0b/54/f40b5413-4c2b-e67e-9554-8656fa3c769a/AppIcon-1x_U007emarketing-85-220-5.png/100x100bb-85.png", "attributes":{"height":"100"}}], "summary":{"label":"《PES CARD COLLECTION》（PESCC）是一款免費的足球手遊，玩家可自由在遊戲內收集全球人氣球員的卡牌。　\n在PESCC的世界中，您可盡情收集球員卡，嘗試各種陣型，進而打造出最強的團隊，亦可透過強化球員卡體驗培育新手球員的樂趣，還可以使用精心培育的球隊，與全球玩家進行即時對戰。\n比賽全數沿用PES系列的數據，您可在華麗的3DCG賽程中使用貼圖向對手傳達心情小語，諸如入球的喜悅、失球的懊悔等等。\n在「11人戰」模式中，您可與另外10名玩家各自派出一名自豪的球員，共同組成夢幻團隊，體驗即時性的協力戰。\n遊戲中亦會定期舉辦「錦標賽」大會，玩家可藉此機會與全球玩家一決勝負，長期享受與人較勁的樂趣。\n\n●以真實相片的形式 收錄世界人氣球員卡牌！\n阿根廷國家隊、巴西國家隊、葡萄牙國家隊等爭奪世界王者的國家隊勁旅自不待說，也有收錄FC BARCELONA、LIVERPOOL FC、ARSENAL FC、BV BORUSSIA 09 DORTMUND等知名球會球星的真實相片卡牌。快來收集球員卡，持續強化，組成個人專屬的最強球隊吧!\n\n●比賽中可用貼圖來對話！\n收集球員組成陣型後，比賽操作全數由電腦操控。比賽過程中，您可以使用原創貼圖和對手進行溝通，表達喜怒哀樂，和語言不通的外國人交鋒時，亦可輕易傳達想法。「足球遊戲」是世界的共通語言！\n\n●可享有即時對戰＆11人協力戰！\n若想試試自身的球隊實力，最佳的途徑就是與勁敵對壘，PESCC讓您全天候均能與全球高手進行即時對戰。您不僅能透過「排名賽」挑戰未知的強敵，亦能與好友進行「友誼賽」;遊戲中亦具備「11人戰」模式，這是一個11人的即時協力戰系統，您可與另外10名玩家各自派出一名最強球員，使用夢幻陣容合力擊潰強敵，享受足球遊戲的全新樂趣。\n\n●定期舉辦的「節日」中，全球玩家共襄盛舉!\nPESCC會定期舉辦「錦標賽」，藉此決出遊戲內的最強球隊，同時亦會釋出各類優惠活動和特殊扭蛋。這是所有玩家共襄盛舉的「節日」慶典，快抓緊機會迅速強化您的球隊，願您能與全球玩家一同享受這個時刻。\n\n●想要這樣的足球遊戲嗎！？PESCC是您的最佳選擇\n基礎功能免費，簡單易上手\n打遊戲的同時，還可一邊觀賞電視球賽轉播\n比賽中無需手動操作，輕鬆無負擔\n全天候均能與全球玩家對戰交鋒\n內含11名玩家協力作戰玩法，宛如置身真實球賽\n人氣球星全數以「實名＆真實相片」的形式現身於遊戲之中\n\n對應機種：\niOS 9.0以上\n推薦機種\n- iPhone 5s以上、 iPad Pro、 iPad Air以上、 iPad mini 2以上\n\n※「應用程式圖標」和「主畫面」上的球員「NANI」不會出現於「Internationals系列 2018」葡萄牙國家隊之中。\n\n權利聲明：\nhttps://www.konami.com/wepes/mobile/wecc/license/"}, "im:price":{"label":"取得", "attributes":{"amount":"0.00000", "currency":"HKD"}}, "im:contentType":{"attributes":{"term":"Application", "label":"應用程式"}}, "rights":{"label":"© 2018 Konami Digital Entertainment"}, "title":{"label":"PES CARD COLLECTION - KONAMI"}, "link":{"attributes":{"rel":"alternate", "type":"text/html", "href":"https://itunes.apple.com/hk/app/pes-card-collection/id1273064549?mt=8&uo=2"}}, "id":{"label":"https://itunes.apple.com/hk/app/pes-card-collection/id1273064549?mt=8&uo=2", "attributes":{"im:id":"1273064549", "im:bundleId":"jp.konami.wecc"}}, "im:artist":{"label":"KONAMI", "attributes":{"href":"https://itunes.apple.com/hk/developer/konami/id299580230?mt=8&uo=2"}}, "category":{"attributes":{"im:id":"6014", "term":"Games", "scheme":"https://itunes.apple.com/hk/genre/ios-%E9%81%8A%E6%88%B2/id6014?mt=8&uo=2", "label":"遊戲"}}, "im:releaseDate":{"label":"2017-10-29T21:22:03-07:00", "attributes":{"label":"2017年10月29日"}}},
  {"im:name":{"label":"CMM Champions Manager Mobasaka"}, "im:image":[
    {"label":"https://is2-ssl.mzstatic.com/image/thumb/Purple125/v4/02/de/75/02de7505-53c6-2e51-07b2-14332e3c17bd/AppIcon-1x_U007emarketing-0-85-220-0-7.png/53x53bb-85.png", "attributes":{"height":"53"}},
    {"label":"https://is4-ssl.mzstatic.com/image/thumb/Purple125/v4/02/de/75/02de7505-53c6-2e51-07b2-14332e3c17bd/AppIcon-1x_U007emarketing-0-85-220-0-7.png/75x75bb-85.png", "attributes":{"height":"75"}},
    {"label":"https://is2-ssl.mzstatic.com/image/thumb/Purple125/v4/02/de/75/02de7505-53c6-2e51-07b2-14332e3c17bd/AppIcon-1x_U007emarketing-0-85-220-0-7.png/100x100bb-85.png", "attributes":{"height":"100"}}], "summary":{"label":"《CMM Champions Manager Mobasaka》可能係最多香港人玩嘅足球遊戲！\nFIFPro正版授權 「巴迪斯圖達」領軍代言！\n\n《CMM》由Capstone Games聯合日本著名遊戲公司Mobcast歷時兩年研發嘅模擬足球經理人遊戲，唔只有FIFPro正版授權過千名世界級球星，今鋪仲有經典球星強勢加盟！\n \nYou are Legend！\n\n——Classic！——\nFIFPro官方授權，除咗現役過千位世界級球星「C朗」「巴利」「賓斯馬」「卻奧斯」「摩迪」之外，而家您仲可以招攬戰神「巴迪高」，獅子王「費高」，左腳重炮「卡路士」，鋼門「施文」等等嘅傳奇球星加入您支球隊，打造只屬於您嘅夢之隊！\n\n——Ｍode！——\n「聯賽模式」「天梯模式」「巡迴賽模式」「冠軍聯賽」呢啲模式點可以滿足到善變嘅香港人！而家仲加咗「夢幻聯賽」同「巔峰模式」等住全港球迷嚟挑機！《CMM》可能係香港最多花臣嘅足球遊戲！\n\n——Superstar！——\n閃卡系統流出中，新增球星「技能閃卡」同「能力閃卡」！點止我朗先可以做球王，只要閃卡用得啱，真係牛油手都變神之手！\n\n——Ho Fai！——\n香港專業足球評述員「何輝」母語旁述，令你每場比賽都置身其中，加埋3D引擎打造嘅Live級比賽畫面，領先嘅動作動態捕捉技術，仲有擬真嘅天氣變化影響每一場比賽！ \n\n——Hero！——\n再唔係得個「望」字！喺我地呢到你可以調兵遣將，親自指揮！全靠《CMM 》\n獨有嘅英雄時刻，幾時分邊傳波由你揀、扭波落底定爆入禁區搏插水你話事、最後射門角度都可以自由控制，實行一隻手指尾拉佢個西，今鋪《CMM》真係做到有得揀你先係球會老闆！\n\n——Power！——\n「TikiTaka」定「泊大巴」風格陣容由你自由配搭，超過50種陣型變化出過千種戰術，打造香港人嘅風格一齊踢出我天地！\n\nThe use of images and names of the football players in this game is under license from FIFPro Commercial Enterprises BV. \nFIFPro is a registered trademark of FIFPro Commercial Enterprises BV.\n©Real Madrid (18)"}, "im:price":{"label":"取得", "attributes":{"amount":"0.00000", "currency":"HKD"}}, "im:contentType":{"attributes":{"term":"Application", "label":"應用程式"}}, "rights":{"label":"© EFUN COMPANY LIMITED"}, "title":{"label":"CMM Champions Manager Mobasaka - EFUN COMPANY LIMITED"}, "link":{"attributes":{"rel":"alternate", "type":"text/html", "href":"https://itunes.apple.com/hk/app/cmm-champions-manager-mobasaka/id1326699466?mt=8&uo=2"}}, "id":{"label":"https://itunes.apple.com/hk/app/cmm-champions-manager-mobasaka/id1326699466?mt=8&uo=2", "attributes":{"im:id":"1326699466", "im:bundleId":"com.vqw.hmzq"}}, "im:artist":{"label":"EFUN COMPANY LIMITED", "attributes":{"href":"https://itunes.apple.com/hk/developer/efun-company-limited/id595597109?mt=8&uo=2"}}, "category":{"attributes":{"im:id":"6014", "term":"Games", "scheme":"https://itunes.apple.com/hk/genre/ios-%E9%81%8A%E6%88%B2/id6014?mt=8&uo=2", "label":"遊戲"}}, "im:releaseDate":{"label":"2018-02-08T21:18:07-07:00", "attributes":{"label":"2018年02月08日"}}}], "updated":{"label":"2018-06-29T17:05:39-07:00"}, "rights":{"label":"Copyright 2008 Apple Inc."}, "title":{"label":"iTunes Store：App 暢銷排行"}, "icon":{"label":"http://itunes.apple.com/favicon.ico"}, "link":[
  {"attributes":{"rel":"alternate", "type":"text/html", "href":"https://itunes.apple.com/WebObjects/MZStore.woa/wa/viewTop?cc=hk&id=172314&popId=38"}},
  {"attributes":{"rel":"self", "href":"https://itunes.apple.com/hk/rss/topgrossingapplications/limit=10/json"}}], "id":{"label":"https://itunes.apple.com/hk/rss/topgrossingapplications/limit=10/json"}}}